{
  "METADATA_VERSION": 21,
  "allow_disabled_algorithms": false,
  "com.sesnsitiveusername.kisspetalmyprince-100-armeabi-v7a-release.apk": {
    "hash": "6cd37955eea3ae34a7bff7bf8ca84df8768df94a6880e51172ef202e1f596f74",
    "hashType": "sha256",
    "uses-permission": [
      [
        "android.permission.WAKE_LOCK",
        null
      ],
      [
        "android.permission.WRITE_EXTERNAL_STORAGE",
        null
      ],
      [
        "android.permission.VIBRATE",
        null
      ],
      [
        "com.android.vending.CHECK_LICENSE",
        null
      ],
      [
        "android.permission.READ_EXTERNAL_STORAGE",
        null
      ]
    ],
    "uses-permission-sdk-23": [],
    "features": [],
    "icons_src": {
      "65534": "res/mipmap-anydpi-v26/icon.xml",
      "240": "res/mipmap-hdpi-v4/icon.png",
      "160": "res/mipmap-mdpi-v4/icon.png",
      "320": "res/mipmap-xhdpi-v4/icon.png",
      "480": "res/mipmap-xxhdpi-v4/icon.png",
      "640": "res/mipmap-xxxhdpi-v4/icon.png",
      "-1": "res/mipmap-mdpi-v4/icon.png"
    },
    "icons": {
      "65534": "com.sesnsitiveusername.kisspetalmyprince.100.xml",
      "640": "com.sesnsitiveusername.kisspetalmyprince.100.png",
      "480": "com.sesnsitiveusername.kisspetalmyprince.100.png",
      "320": "com.sesnsitiveusername.kisspetalmyprince.100.png",
      "240": "com.sesnsitiveusername.kisspetalmyprince.100.png",
      "160": "com.sesnsitiveusername.kisspetalmyprince.100.png",
      "0": "com.sesnsitiveusername.kisspetalmyprince.100.png"
    },
    "antiFeatures": [],
    "packageName": "com.sesnsitiveusername.kisspetalmyprince",
    "versionCode": 100,
    "versionName": "1.0",
    "minSdkVersion": 19,
    "targetSdkVersion": 28,
    "name": "A Kiss For The Petals: My Dear Prince",
    "nativecode": [
      "armeabi-v7a"
    ],
    "sig": "0f2ed1df1b7ac75995b87cf0a4c53980",
    "signer": "dec83cd36bf03780025806579c31fafe06a45452d385f6106088c096377ff5f4",
    "size": 245639273,
    "apkName": "com.sesnsitiveusername.kisspetalmyprince-100-armeabi-v7a-release.apk",
    "icon": "com.sesnsitiveusername.kisspetalmyprince.100.png",
    "added": 1556169265.971798
  }
}